{
    "KPackageStructure": "KWin/Effect",
    "KPlugin": {
        "Authors": [
            {
                "Email": "mgraesslin@kde.org",
                "Name": "Martin Gräßlin",
                "Name[ar]": "مارتن جراجلين",
                "Name[gl]": "Martin Gräßlin.",
                "Name[he]": "מרטין גרייסלין",
                "Name[ka]": "მარტინ გრესსლინი",
                "Name[ta]": "மார்ட்டின் கிராஸ்லின்",
                "Name[x-test]": "xxMartin Gräßlinxx"
            }
        ],
        "Category": "Appearance",
        "Description": "Animation for a window going to maximize/restore from maximize",
        "Description[ar]": "تحريك النوافذ عند تكبيرها/استعادة من التكبير",
        "Description[be]": "Анімацыя акон пры разгортванні і згортванні з разгорнутага рэжыму",
        "Description[bg]": "Анимация за прозорец при максимизиране/възстановяване",
        "Description[ca@valencia]": "Animació per a una finestra que es maximitza/restaura des de maximització",
        "Description[ca]": "Animació per a una finestra que es maximitza/restaura des de maximització",
        "Description[cs]": "Animace okna pro maximalizaci/obnovení z maximalizace",
        "Description[da]": "Animationen for et vindue, der maksimeres/gendannes fra maksimering",
        "Description[de]": "Animation für ein Fenster beim Maximieren und Wiederherstellen",
        "Description[en_GB]": "Animation for a window going to maximise/restore from maximise",
        "Description[eo]": "Animacio por fenestro maksimumigi/restarigi de maksimumigi",
        "Description[es]": "Animación para la ventana que se maximiza o restaura desde el estado de maximizada",
        "Description[et]": "Maksimeeritava või maksimeeritust taastatava akna animatsioon",
        "Description[eu]": "Leihoa maximizatzera/maximizatutik leheneratzera doanerako animazioa",
        "Description[fi]": "Animaation ikkunaa suurennettaessa tai palautettaessa suurennetusta tilasta",
        "Description[fr]": "Animation pour une fenêtre passant de maximiser / restaurer à partir de maximiser",
        "Description[gl]": "Animación das xanelas que se maximizan ou restauran maximizadas.",
        "Description[he]": "הנפשה לחלון שמוגדל/משוחזר מהגדלה",
        "Description[hu]": "A maximalizálásra készülő/maximalizálásból visszatérő ablakok animációja",
        "Description[ia]": "Animation per un fenestra va maximisar/restabilir ab maximisar",
        "Description[is]": "Hreyfiáhrif fyrir glugga sem eru fullstækkaðir/teknir úr fullstækkun",
        "Description[it]": "Animazione per una finestra massimizzata o ripristinata dalla massimizzazione",
        "Description[ja]": "最大化/復元時のウィンドウアニメーション",
        "Description[ka]": "ფანჯრის ანიმაცია ჩაკეცვის/ამოკეცვის მცდელობისას",
        "Description[ko]": "최대화된 창이 최소화되거나 복원될 때 사용할 애니메이션",
        "Description[lt]": "Animacija, kuri naudojama išskleidžiant langą ar gražinant jį iš išskleidimo",
        "Description[lv]": "Loga animācija, to maksimizējot vai noņemot maksimizēšanu",
        "Description[nl]": "Animatie voor een venster dat gaat naar maximaliseren/herstellen vanuit maximaliseren",
        "Description[nn]": "Vindaugsanimasjon i samband med bruk av maksimering/gjenoppretting",
        "Description[pl]": "Okna są gładko skalowane przy maksymalizacji i przy powrocie z niej",
        "Description[pt]": "Animação para uma janela ao maximizar-se/repor-se da maximização",
        "Description[ro]": "Animație pentru o fereastră ce trece la maximizare/restabilire din maximizare",
        "Description[ru]": "Анимация для окна, которое будет максимизировано/восстановит размер после максимизации",
        "Description[sk]": "Animácia pre okno, ktoré sa maximalizuje/obnoví z maximalizácie",
        "Description[sl]": "Animacija za okno, ki bo povečano/obnovljeno iz povečanja",
        "Description[sv]": "Animering för ett fönster som ska maximeras eller återställas från maximering",
        "Description[ta]": "சாளரத்தை அதிகபட்ச பெரிதாக்கும்போதும் பழைய அளவை மீளமர்த்தும்போதும் பயன்படுத்த வேண்டிய அசைவூட்டம்",
        "Description[tr]": "Ekranı kaplayan/eski haline dönen bir pencere için canlandırma",
        "Description[uk]": "Анімація для вікон під час максимізації/відновлення з максимізації",
        "Description[vi]": "Hiệu ứng động cho một cửa sổ chuẩn bị phóng to hoặc khôi phục từ trạng thái phóng to",
        "Description[x-test]": "xxAnimation for a window going to maximize/restore from maximizexx",
        "Description[zh_CN]": "窗口最大化/恢复时呈现过渡动效",
        "Description[zh_TW]": "視窗最大化/回復時的動畫",
        "EnabledByDefault": true,
        "Icon": "preferences-system-windows-effect-maximize",
        "Id": "maximize",
        "License": "GPL",
        "Name": "Maximize",
        "Name[ar]": "كبّر",
        "Name[be]": "Разгарнуць",
        "Name[bg]": "Максимизиране",
        "Name[ca@valencia]": "Maximitza",
        "Name[ca]": "Maximitza",
        "Name[cs]": "Maximalizovat",
        "Name[da]": "Maksimér",
        "Name[de]": "Maximieren",
        "Name[en_GB]": "Maximise",
        "Name[eo]": "Maksimumigi",
        "Name[es]": "Maximizar",
        "Name[et]": "Maksimeerimine",
        "Name[eu]": "Maximizatzea",
        "Name[fi]": "Suurenna",
        "Name[fr]": "Maximiser",
        "Name[gl]": "Maximizar",
        "Name[he]": "הגדלה",
        "Name[hu]": "Maximalizálás",
        "Name[ia]": "Maximiza",
        "Name[is]": "Fullstækka",
        "Name[it]": "Massimizza",
        "Name[ja]": "最大化",
        "Name[ka]": "გადიდება",
        "Name[ko]": "최대화",
        "Name[lt]": "Išskleidimas",
        "Name[lv]": "Maksimizēt",
        "Name[nl]": "Maximaliseren",
        "Name[nn]": "Maksimer",
        "Name[pl]": "Maksymalizacja",
        "Name[pt]": "Maximizar",
        "Name[pt_BR]": "Maximizar",
        "Name[ro]": "Maximizează",
        "Name[ru]": "Распахивание окон",
        "Name[sk]": "Maximalizovať",
        "Name[sl]": "Razpni",
        "Name[sv]": "Maximera",
        "Name[ta]": "அதிகபட்ச பெரிதாக்குவது",
        "Name[tr]": "Ekranı Kapla",
        "Name[uk]": "Максимізація",
        "Name[vi]": "Phóng to",
        "Name[x-test]": "xxMaximizexx",
        "Name[zh_CN]": "最大化过渡动画",
        "Name[zh_TW]": "最大化"
    },
    "X-KDE-Ordering": 60,
    "X-KWin-Video-Url": "https://files.kde.org/plasma/kwin/effect-videos/maximize.ogv",
    "X-Plasma-API": "javascript"
}
